#     0  pc =  x  pcaddr = xxxxxxxX  instr = 00001025   v0 = 0   or    $2, $0, $0
#     1  pc =  x  pcaddr = xxxxxxxX  instr = 00001025   v0 = 0   or    $2, $0, $0
#     2  pc =  0  pcaddr = 00000000  instr = 00001025   v0 = 0   or    $2, $0, $0
#     3  pc =  0  pcaddr = 00000000  instr = 00001025   v0 = 0   or    $2, $0, $0
#     4  pc =  0  pcaddr = 00000000  instr = 00001025   v0 = 0   or    $2, $0, $0
#     5  pc =  1  pcaddr = 00000004  instr = 24080008   v0 = 0   addiu $8, $0, 8
#     6  pc =  2  pcaddr = 00000008  instr = 38420aaa   v0 = 0   new/unknown
#     7  pc =  3  pcaddr = 0000000c  instr = 00000000   v0 = 2730   nop
#     8  pc =  4  pcaddr = 00000010  instr = 00021100   v0 = 2730   new/unknown
#     9  pc =  5  pcaddr = 00000014  instr = 00000000   v0 = 43680   nop
#    10  pc =  6  pcaddr = 00000018  instr = 00421026   v0 = 43680   new/unknown
#    11  pc =  7  pcaddr = 0000001c  instr = 01000008   v0 = 0   new/unknown
#    12  pc =  2  pcaddr = 00000008  instr = 38420aaa   v0 = 0   new/unknown
#    13  pc =  3  pcaddr = 0000000c  instr = 00000000   v0 = 2730   nop
#    14  pc =  4  pcaddr = 00000010  instr = 00021100   v0 = 2730   new/unknown
#    15  pc =  5  pcaddr = 00000014  instr = 00000000   v0 = 43680   nop
#    16  pc =  6  pcaddr = 00000018  instr = 00421026   v0 = 43680   new/unknown
#    17  pc =  7  pcaddr = 0000001c  instr = 01000008   v0 = 0   new/unknown
#    18  pc =  2  pcaddr = 00000008  instr = 38420aaa   v0 = 0   new/unknown
#    19  pc =  3  pcaddr = 0000000c  instr = 00000000   v0 = 2730   nop
#    20  pc =  4  pcaddr = 00000010  instr = 00021100   v0 = 2730   new/unknown
#    21  pc =  5  pcaddr = 00000014  instr = 00000000   v0 = 43680   nop
#    22  pc =  6  pcaddr = 00000018  instr = 00421026   v0 = 43680   new/unknown
#    23  pc =  7  pcaddr = 0000001c  instr = 01000008   v0 = 0   new/unknown
#    24  pc =  2  pcaddr = 00000008  instr = 38420aaa   v0 = 0   new/unknown
#    25  pc =  3  pcaddr = 0000000c  instr = 00000000   v0 = 2730   nop
#    26  pc =  4  pcaddr = 00000010  instr = 00021100   v0 = 2730   new/unknown
#    27  pc =  5  pcaddr = 00000014  instr = 00000000   v0 = 43680   nop
#    28  pc =  6  pcaddr = 00000018  instr = 00421026   v0 = 43680   new/unknown
#    29  pc =  7  pcaddr = 0000001c  instr = 01000008   v0 = 0   new/unknown
#    30  pc =  2  pcaddr = 00000008  instr = 38420aaa   v0 = 0   new/unknown
#    31  pc =  3  pcaddr = 0000000c  instr = 00000000   v0 = 2730   nop
#    32  pc =  4  pcaddr = 00000010  instr = 00021100   v0 = 2730   new/unknown
#    33  pc =  5  pcaddr = 00000014  instr = 00000000   v0 = 43680   nop
#    34  pc =  6  pcaddr = 00000018  instr = 00421026   v0 = 43680   new/unknown
#    35  pc =  7  pcaddr = 0000001c  instr = 01000008   v0 = 0   new/unknown
#    36  pc =  2  pcaddr = 00000008  instr = 38420aaa   v0 = 0   new/unknown
#    37  pc =  3  pcaddr = 0000000c  instr = 00000000   v0 = 2730   nop
#    38  pc =  4  pcaddr = 00000010  instr = 00021100   v0 = 2730   new/unknown
#    39  pc =  5  pcaddr = 00000014  instr = 00000000   v0 = 43680   nop
#    40  pc =  6  pcaddr = 00000018  instr = 00421026   v0 = 43680   new/unknown
#    41  pc =  7  pcaddr = 0000001c  instr = 01000008   v0 = 0   new/unknown
#    42  pc =  2  pcaddr = 00000008  instr = 38420aaa   v0 = 0   new/unknown
#    43  pc =  3  pcaddr = 0000000c  instr = 00000000   v0 = 2730   nop
#    44  pc =  4  pcaddr = 00000010  instr = 00021100   v0 = 2730   new/unknown
#    45  pc =  5  pcaddr = 00000014  instr = 00000000   v0 = 43680   nop
#    46  pc =  6  pcaddr = 00000018  instr = 00421026   v0 = 43680   new/unknown
#    47  pc =  7  pcaddr = 0000001c  instr = 01000008   v0 = 0   new/unknown
#    48  pc =  2  pcaddr = 00000008  instr = 38420aaa   v0 = 0   new/unknown
#    49  pc =  3  pcaddr = 0000000c  instr = 00000000   v0 = 2730   nop
#    50  pc =  4  pcaddr = 00000010  instr = 00021100   v0 = 2730   new/unknown
#    51  pc =  5  pcaddr = 00000014  instr = 00000000   v0 = 43680   nop
#    52  pc =  6  pcaddr = 00000018  instr = 00421026   v0 = 43680   new/unknown
#    53  pc =  7  pcaddr = 0000001c  instr = 01000008   v0 = 0   new/unknown
#    54  pc =  2  pcaddr = 00000008  instr = 38420aaa   v0 = 0   new/unknown
#    55  pc =  3  pcaddr = 0000000c  instr = 00000000   v0 = 2730   nop
#    56  pc =  4  pcaddr = 00000010  instr = 00021100   v0 = 2730   new/unknown
#    57  pc =  5  pcaddr = 00000014  instr = 00000000   v0 = 43680   nop
#    58  pc =  6  pcaddr = 00000018  instr = 00421026   v0 = 43680   new/unknown
#    59  pc =  7  pcaddr = 0000001c  instr = 01000008   v0 = 0   new/unknown
#    60  pc =  2  pcaddr = 00000008  instr = 38420aaa   v0 = 0   new/unknown
#    61  pc =  3  pcaddr = 0000000c  instr = 00000000   v0 = 2730   nop
#    62  pc =  4  pcaddr = 00000010  instr = 00021100   v0 = 2730   new/unknown
#    63  pc =  5  pcaddr = 00000014  instr = 00000000   v0 = 43680   nop
#    64  pc =  6  pcaddr = 00000018  instr = 00421026   v0 = 43680   new/unknown
#    65  pc =  7  pcaddr = 0000001c  instr = 01000008   v0 = 0   new/unknown
#    66  pc =  2  pcaddr = 00000008  instr = 38420aaa   v0 = 0   new/unknown
#    67  pc =  3  pcaddr = 0000000c  instr = 00000000   v0 = 2730   nop
#    68  pc =  4  pcaddr = 00000010  instr = 00021100   v0 = 2730   new/unknown
#    69  pc =  5  pcaddr = 00000014  instr = 00000000   v0 = 43680   nop
#    70  pc =  6  pcaddr = 00000018  instr = 00421026   v0 = 43680   new/unknown
#    71  pc =  7  pcaddr = 0000001c  instr = 01000008   v0 = 0   new/unknown
#    72  pc =  2  pcaddr = 00000008  instr = 38420aaa   v0 = 0   new/unknown
#    73  pc =  3  pcaddr = 0000000c  instr = 00000000   v0 = 2730   nop
#    74  pc =  4  pcaddr = 00000010  instr = 00021100   v0 = 2730   new/unknown
#    75  pc =  5  pcaddr = 00000014  instr = 00000000   v0 = 43680   nop
#    76  pc =  6  pcaddr = 00000018  instr = 00421026   v0 = 43680   new/unknown
#    77  pc =  7  pcaddr = 0000001c  instr = 01000008   v0 = 0   new/unknown
#    78  pc =  2  pcaddr = 00000008  instr = 38420aaa   v0 = 0   new/unknown
#    79  pc =  3  pcaddr = 0000000c  instr = 00000000   v0 = 2730   nop
#    80  pc =  4  pcaddr = 00000010  instr = 00021100   v0 = 2730   new/unknown
#    81  pc =  5  pcaddr = 00000014  instr = 00000000   v0 = 43680   nop
#    82  pc =  6  pcaddr = 00000018  instr = 00421026   v0 = 43680   new/unknown
#    83  pc =  7  pcaddr = 0000001c  instr = 01000008   v0 = 0   new/unknown
#    84  pc =  2  pcaddr = 00000008  instr = 38420aaa   v0 = 0   new/unknown
#    85  pc =  3  pcaddr = 0000000c  instr = 00000000   v0 = 2730   nop
#    86  pc =  4  pcaddr = 00000010  instr = 00021100   v0 = 2730   new/unknown
#    87  pc =  5  pcaddr = 00000014  instr = 00000000   v0 = 43680   nop
#    88  pc =  6  pcaddr = 00000018  instr = 00421026   v0 = 43680   new/unknown
#    89  pc =  7  pcaddr = 0000001c  instr = 01000008   v0 = 0   new/unknown
#    90  pc =  2  pcaddr = 00000008  instr = 38420aaa   v0 = 0   new/unknown
#    91  pc =  3  pcaddr = 0000000c  instr = 00000000   v0 = 2730   nop
#    92  pc =  4  pcaddr = 00000010  instr = 00021100   v0 = 2730   new/unknown
#    93  pc =  5  pcaddr = 00000014  instr = 00000000   v0 = 43680   nop
#    94  pc =  6  pcaddr = 00000018  instr = 00421026   v0 = 43680   new/unknown
#    95  pc =  7  pcaddr = 0000001c  instr = 01000008   v0 = 0   new/unknown
#    96  pc =  2  pcaddr = 00000008  instr = 38420aaa   v0 = 0   new/unknown
#    97  pc =  3  pcaddr = 0000000c  instr = 00000000   v0 = 2730   nop
#    98  pc =  4  pcaddr = 00000010  instr = 00021100   v0 = 2730   new/unknown
#    99  pc =  5  pcaddr = 00000014  instr = 00000000   v0 = 43680   nop
#   100  pc =  6  pcaddr = 00000018  instr = 00421026   v0 = 43680   new/unknown
#   101  pc =  7  pcaddr = 0000001c  instr = 01000008   v0 = 0   new/unknown
#   102  pc =  2  pcaddr = 00000008  instr = 38420aaa   v0 = 0   new/unknown
#   103  pc =  3  pcaddr = 0000000c  instr = 00000000   v0 = 2730   nop
#   104  pc =  4  pcaddr = 00000010  instr = 00021100   v0 = 2730   new/unknown
#   105  pc =  5  pcaddr = 00000014  instr = 00000000   v0 = 43680   nop
#   106  pc =  6  pcaddr = 00000018  instr = 00421026   v0 = 43680   new/unknown
#   107  pc =  7  pcaddr = 0000001c  instr = 01000008   v0 = 0   new/unknown
#   108  pc =  2  pcaddr = 00000008  instr = 38420aaa   v0 = 0   new/unknown
#   109  pc =  3  pcaddr = 0000000c  instr = 00000000   v0 = 2730   nop
#   110  pc =  4  pcaddr = 00000010  instr = 00021100   v0 = 2730   new/unknown
#   111  pc =  5  pcaddr = 00000014  instr = 00000000   v0 = 43680   nop
#   112  pc =  6  pcaddr = 00000018  instr = 00421026   v0 = 43680   new/unknown
#   113  pc =  7  pcaddr = 0000001c  instr = 01000008   v0 = 0   new/unknown
#   114  pc =  2  pcaddr = 00000008  instr = 38420aaa   v0 = 0   new/unknown
#   115  pc =  3  pcaddr = 0000000c  instr = 00000000   v0 = 2730   nop
#   116  pc =  4  pcaddr = 00000010  instr = 00021100   v0 = 2730   new/unknown
#   117  pc =  5  pcaddr = 00000014  instr = 00000000   v0 = 43680   nop
#   118  pc =  6  pcaddr = 00000018  instr = 00421026   v0 = 43680   new/unknown
#   119  pc =  7  pcaddr = 0000001c  instr = 01000008   v0 = 0   new/unknown
#   120  pc =  2  pcaddr = 00000008  instr = 38420aaa   v0 = 0   new/unknown
