#     0  pc =  x  pcaddr = xxxxxxxX  instr = 24040052   v0 = 0   addiu $4, $0, 82
#     1  pc =  x  pcaddr = xxxxxxxX  instr = 24040052   v0 = 0   addiu $4, $0, 82
#     2  pc =  0  pcaddr = 00000000  instr = 24040052   v0 = 0   addiu $4, $0, 82
#     3  pc =  0  pcaddr = 00000000  instr = 24040052   v0 = 0   addiu $4, $0, 82
#     4  pc =  0  pcaddr = 00000000  instr = 24040052   v0 = 0   addiu $4, $0, 82
#     5  pc =  1  pcaddr = 00000004  instr = 24020000   v0 = 0   addiu $2, $0, 0
#     6  pc =  2  pcaddr = 00000008  instr = 3c084000   v0 = 0   lui   $8, 16384
#     7  pc =  3  pcaddr = 0000000c  instr = 00004825   v0 = 0   or    $9, $0, $0
#     8  pc =  4  pcaddr = 00000010  instr = 01285025   v0 = 0   or    $10, $9, $8
#     9  pc =  5  pcaddr = 00000014  instr = 00094842   v0 = 0   srl   $9, $0, $9
#    10  pc =  6  pcaddr = 00000018  instr = 008a582b   v0 = 0   sltu  $11, $4, $10
#    11  pc =  7  pcaddr = 0000001c  instr = 15600003   v0 = 0   bne   $11, $0, 4
#    12  pc = 11  pcaddr = 0000002c  instr = 00084082   v0 = 0   srl   $8, $0, $8
#    13  pc = 12  pcaddr = 00000030  instr = 1500fff7   v0 = 0   bne   $8, $0, -8
#    14  pc =  4  pcaddr = 00000010  instr = 01285025   v0 = 0   or    $10, $9, $8
#    15  pc =  5  pcaddr = 00000014  instr = 00094842   v0 = 0   srl   $9, $0, $9
#    16  pc =  6  pcaddr = 00000018  instr = 008a582b   v0 = 0   sltu  $11, $4, $10
#    17  pc =  7  pcaddr = 0000001c  instr = 15600003   v0 = 0   bne   $11, $0, 4
#    18  pc = 11  pcaddr = 0000002c  instr = 00084082   v0 = 0   srl   $8, $0, $8
#    19  pc = 12  pcaddr = 00000030  instr = 1500fff7   v0 = 0   bne   $8, $0, -8
#    20  pc =  4  pcaddr = 00000010  instr = 01285025   v0 = 0   or    $10, $9, $8
#    21  pc =  5  pcaddr = 00000014  instr = 00094842   v0 = 0   srl   $9, $0, $9
#    22  pc =  6  pcaddr = 00000018  instr = 008a582b   v0 = 0   sltu  $11, $4, $10
#    23  pc =  7  pcaddr = 0000001c  instr = 15600003   v0 = 0   bne   $11, $0, 4
#    24  pc = 11  pcaddr = 0000002c  instr = 00084082   v0 = 0   srl   $8, $0, $8
#    25  pc = 12  pcaddr = 00000030  instr = 1500fff7   v0 = 0   bne   $8, $0, -8
#    26  pc =  4  pcaddr = 00000010  instr = 01285025   v0 = 0   or    $10, $9, $8
#    27  pc =  5  pcaddr = 00000014  instr = 00094842   v0 = 0   srl   $9, $0, $9
#    28  pc =  6  pcaddr = 00000018  instr = 008a582b   v0 = 0   sltu  $11, $4, $10
#    29  pc =  7  pcaddr = 0000001c  instr = 15600003   v0 = 0   bne   $11, $0, 4
#    30  pc = 11  pcaddr = 0000002c  instr = 00084082   v0 = 0   srl   $8, $0, $8
#    31  pc = 12  pcaddr = 00000030  instr = 1500fff7   v0 = 0   bne   $8, $0, -8
#    32  pc =  4  pcaddr = 00000010  instr = 01285025   v0 = 0   or    $10, $9, $8
#    33  pc =  5  pcaddr = 00000014  instr = 00094842   v0 = 0   srl   $9, $0, $9
#    34  pc =  6  pcaddr = 00000018  instr = 008a582b   v0 = 0   sltu  $11, $4, $10
#    35  pc =  7  pcaddr = 0000001c  instr = 15600003   v0 = 0   bne   $11, $0, 4
#    36  pc = 11  pcaddr = 0000002c  instr = 00084082   v0 = 0   srl   $8, $0, $8
#    37  pc = 12  pcaddr = 00000030  instr = 1500fff7   v0 = 0   bne   $8, $0, -8
#    38  pc =  4  pcaddr = 00000010  instr = 01285025   v0 = 0   or    $10, $9, $8
#    39  pc =  5  pcaddr = 00000014  instr = 00094842   v0 = 0   srl   $9, $0, $9
#    40  pc =  6  pcaddr = 00000018  instr = 008a582b   v0 = 0   sltu  $11, $4, $10
#    41  pc =  7  pcaddr = 0000001c  instr = 15600003   v0 = 0   bne   $11, $0, 4
#    42  pc = 11  pcaddr = 0000002c  instr = 00084082   v0 = 0   srl   $8, $0, $8
#    43  pc = 12  pcaddr = 00000030  instr = 1500fff7   v0 = 0   bne   $8, $0, -8
#    44  pc =  4  pcaddr = 00000010  instr = 01285025   v0 = 0   or    $10, $9, $8
#    45  pc =  5  pcaddr = 00000014  instr = 00094842   v0 = 0   srl   $9, $0, $9
#    46  pc =  6  pcaddr = 00000018  instr = 008a582b   v0 = 0   sltu  $11, $4, $10
#    47  pc =  7  pcaddr = 0000001c  instr = 15600003   v0 = 0   bne   $11, $0, 4
#    48  pc = 11  pcaddr = 0000002c  instr = 00084082   v0 = 0   srl   $8, $0, $8
#    49  pc = 12  pcaddr = 00000030  instr = 1500fff7   v0 = 0   bne   $8, $0, -8
#    50  pc =  4  pcaddr = 00000010  instr = 01285025   v0 = 0   or    $10, $9, $8
#    51  pc =  5  pcaddr = 00000014  instr = 00094842   v0 = 0   srl   $9, $0, $9
#    52  pc =  6  pcaddr = 00000018  instr = 008a582b   v0 = 0   sltu  $11, $4, $10
#    53  pc =  7  pcaddr = 0000001c  instr = 15600003   v0 = 0   bne   $11, $0, 4
#    54  pc = 11  pcaddr = 0000002c  instr = 00084082   v0 = 0   srl   $8, $0, $8
#    55  pc = 12  pcaddr = 00000030  instr = 1500fff7   v0 = 0   bne   $8, $0, -8
#    56  pc =  4  pcaddr = 00000010  instr = 01285025   v0 = 0   or    $10, $9, $8
#    57  pc =  5  pcaddr = 00000014  instr = 00094842   v0 = 0   srl   $9, $0, $9
#    58  pc =  6  pcaddr = 00000018  instr = 008a582b   v0 = 0   sltu  $11, $4, $10
#    59  pc =  7  pcaddr = 0000001c  instr = 15600003   v0 = 0   bne   $11, $0, 4
#    60  pc = 11  pcaddr = 0000002c  instr = 00084082   v0 = 0   srl   $8, $0, $8
#    61  pc = 12  pcaddr = 00000030  instr = 1500fff7   v0 = 0   bne   $8, $0, -8
#    62  pc =  4  pcaddr = 00000010  instr = 01285025   v0 = 0   or    $10, $9, $8
#    63  pc =  5  pcaddr = 00000014  instr = 00094842   v0 = 0   srl   $9, $0, $9
#    64  pc =  6  pcaddr = 00000018  instr = 008a582b   v0 = 0   sltu  $11, $4, $10
#    65  pc =  7  pcaddr = 0000001c  instr = 15600003   v0 = 0   bne   $11, $0, 4
#    66  pc = 11  pcaddr = 0000002c  instr = 00084082   v0 = 0   srl   $8, $0, $8
#    67  pc = 12  pcaddr = 00000030  instr = 1500fff7   v0 = 0   bne   $8, $0, -8
#    68  pc =  4  pcaddr = 00000010  instr = 01285025   v0 = 0   or    $10, $9, $8
#    69  pc =  5  pcaddr = 00000014  instr = 00094842   v0 = 0   srl   $9, $0, $9
#    70  pc =  6  pcaddr = 00000018  instr = 008a582b   v0 = 0   sltu  $11, $4, $10
#    71  pc =  7  pcaddr = 0000001c  instr = 15600003   v0 = 0   bne   $11, $0, 4
#    72  pc = 11  pcaddr = 0000002c  instr = 00084082   v0 = 0   srl   $8, $0, $8
#    73  pc = 12  pcaddr = 00000030  instr = 1500fff7   v0 = 0   bne   $8, $0, -8
#    74  pc =  4  pcaddr = 00000010  instr = 01285025   v0 = 0   or    $10, $9, $8
#    75  pc =  5  pcaddr = 00000014  instr = 00094842   v0 = 0   srl   $9, $0, $9
#    76  pc =  6  pcaddr = 00000018  instr = 008a582b   v0 = 0   sltu  $11, $4, $10
#    77  pc =  7  pcaddr = 0000001c  instr = 15600003   v0 = 0   bne   $11, $0, 4
#    78  pc = 11  pcaddr = 0000002c  instr = 00084082   v0 = 0   srl   $8, $0, $8
#    79  pc = 12  pcaddr = 00000030  instr = 1500fff7   v0 = 0   bne   $8, $0, -8
#    80  pc =  4  pcaddr = 00000010  instr = 01285025   v0 = 0   or    $10, $9, $8
#    81  pc =  5  pcaddr = 00000014  instr = 00094842   v0 = 0   srl   $9, $0, $9
#    82  pc =  6  pcaddr = 00000018  instr = 008a582b   v0 = 0   sltu  $11, $4, $10
#    83  pc =  7  pcaddr = 0000001c  instr = 15600003   v0 = 0   bne   $11, $0, 4
#    84  pc =  8  pcaddr = 00000020  instr = 00000000   v0 = 0   nop
#    85  pc =  9  pcaddr = 00000024  instr = 008a2023   v0 = 0   subu  $4, $4, $10
#    86  pc = 10  pcaddr = 00000028  instr = 01284825   v0 = 0   or    $9, $9, $8
#    87  pc = 11  pcaddr = 0000002c  instr = 00084082   v0 = 0   srl   $8, $0, $8
#    88  pc = 12  pcaddr = 00000030  instr = 1500fff7   v0 = 0   bne   $8, $0, -8
#    89  pc =  4  pcaddr = 00000010  instr = 01285025   v0 = 0   or    $10, $9, $8
#    90  pc =  5  pcaddr = 00000014  instr = 00094842   v0 = 0   srl   $9, $0, $9
#    91  pc =  6  pcaddr = 00000018  instr = 008a582b   v0 = 0   sltu  $11, $4, $10
#    92  pc =  7  pcaddr = 0000001c  instr = 15600003   v0 = 0   bne   $11, $0, 4
#    93  pc = 11  pcaddr = 0000002c  instr = 00084082   v0 = 0   srl   $8, $0, $8
#    94  pc = 12  pcaddr = 00000030  instr = 1500fff7   v0 = 0   bne   $8, $0, -8
#    95  pc =  4  pcaddr = 00000010  instr = 01285025   v0 = 0   or    $10, $9, $8
#    96  pc =  5  pcaddr = 00000014  instr = 00094842   v0 = 0   srl   $9, $0, $9
#    97  pc =  6  pcaddr = 00000018  instr = 008a582b   v0 = 0   sltu  $11, $4, $10
#    98  pc =  7  pcaddr = 0000001c  instr = 15600003   v0 = 0   bne   $11, $0, 4
#    99  pc = 11  pcaddr = 0000002c  instr = 00084082   v0 = 0   srl   $8, $0, $8
#   100  pc = 12  pcaddr = 00000030  instr = 1500fff7   v0 = 0   bne   $8, $0, -8
#   101  pc =  4  pcaddr = 00000010  instr = 01285025   v0 = 0   or    $10, $9, $8
#   102  pc =  5  pcaddr = 00000014  instr = 00094842   v0 = 0   srl   $9, $0, $9
#   103  pc =  6  pcaddr = 00000018  instr = 008a582b   v0 = 0   sltu  $11, $4, $10
#   104  pc =  7  pcaddr = 0000001c  instr = 15600003   v0 = 0   bne   $11, $0, 4
#   105  pc =  8  pcaddr = 00000020  instr = 00000000   v0 = 0   nop
#   106  pc =  9  pcaddr = 00000024  instr = 008a2023   v0 = 0   subu  $4, $4, $10
#   107  pc = 10  pcaddr = 00000028  instr = 01284825   v0 = 0   or    $9, $9, $8
#   108  pc = 11  pcaddr = 0000002c  instr = 00084082   v0 = 0   srl   $8, $0, $8
#   109  pc = 12  pcaddr = 00000030  instr = 1500fff7   v0 = 0   bne   $8, $0, -8
#   110  pc = 13  pcaddr = 00000034  instr = 00000000   v0 = 0   nop
#   111  pc = 14  pcaddr = 00000038  instr = 01201025   v0 = 0   or    $2, $9, $0
#   112  pc = 15  pcaddr = 0000003c  instr = 1000ffff   v0 = 9   beq   $0, $0, 0
#   113  pc = 15  pcaddr = 0000003c  instr = 1000ffff   v0 = 9   beq   $0, $0, 0
#   114  pc = 15  pcaddr = 0000003c  instr = 1000ffff   v0 = 9   beq   $0, $0, 0
#   115  pc = 15  pcaddr = 0000003c  instr = 1000ffff   v0 = 9   beq   $0, $0, 0
#   116  pc = 15  pcaddr = 0000003c  instr = 1000ffff   v0 = 9   beq   $0, $0, 0
#   117  pc = 15  pcaddr = 0000003c  instr = 1000ffff   v0 = 9   beq   $0, $0, 0
#   118  pc = 15  pcaddr = 0000003c  instr = 1000ffff   v0 = 9   beq   $0, $0, 0
#   119  pc = 15  pcaddr = 0000003c  instr = 1000ffff   v0 = 9   beq   $0, $0, 0
#   120  pc = 15  pcaddr = 0000003c  instr = 1000ffff   v0 = 9   beq   $0, $0, 0
#   121  pc = 15  pcaddr = 0000003c  instr = 1000ffff   v0 = 9   beq   $0, $0, 0
#   122  pc = 15  pcaddr = 0000003c  instr = 1000ffff   v0 = 9   beq   $0, $0, 0
#   123  pc = 15  pcaddr = 0000003c  instr = 1000ffff   v0 = 9   beq   $0, $0, 0
#   124  pc = 15  pcaddr = 0000003c  instr = 1000ffff   v0 = 9   beq   $0, $0, 0
#   125  pc = 15  pcaddr = 0000003c  instr = 1000ffff   v0 = 9   beq   $0, $0, 0
#   126  pc = 15  pcaddr = 0000003c  instr = 1000ffff   v0 = 9   beq   $0, $0, 0
#   127  pc = 15  pcaddr = 0000003c  instr = 1000ffff   v0 = 9   beq   $0, $0, 0
#   128  pc = 15  pcaddr = 0000003c  instr = 1000ffff   v0 = 9   beq   $0, $0, 0
#   129  pc = 15  pcaddr = 0000003c  instr = 1000ffff   v0 = 9   beq   $0, $0, 0
#   130  pc = 15  pcaddr = 0000003c  instr = 1000ffff   v0 = 9   beq   $0, $0, 0
#   131  pc = 15  pcaddr = 0000003c  instr = 1000ffff   v0 = 9   beq   $0, $0, 0
#   132  pc = 15  pcaddr = 0000003c  instr = 1000ffff   v0 = 9   beq   $0, $0, 0
#   133  pc = 15  pcaddr = 0000003c  instr = 1000ffff   v0 = 9   beq   $0, $0, 0
#   134  pc = 15  pcaddr = 0000003c  instr = 1000ffff   v0 = 9   beq   $0, $0, 0
#   135  pc = 15  pcaddr = 0000003c  instr = 1000ffff   v0 = 9   beq   $0, $0, 0
#   136  pc = 15  pcaddr = 0000003c  instr = 1000ffff   v0 = 9   beq   $0, $0, 0
#   137  pc = 15  pcaddr = 0000003c  instr = 1000ffff   v0 = 9   beq   $0, $0, 0
#   138  pc = 15  pcaddr = 0000003c  instr = 1000ffff   v0 = 9   beq   $0, $0, 0
#   139  pc = 15  pcaddr = 0000003c  instr = 1000ffff   v0 = 9   beq   $0, $0, 0
#   140  pc = 15  pcaddr = 0000003c  instr = 1000ffff   v0 = 9   beq   $0, $0, 0
#   141  pc = 15  pcaddr = 0000003c  instr = 1000ffff   v0 = 9   beq   $0, $0, 0
#   142  pc = 15  pcaddr = 0000003c  instr = 1000ffff   v0 = 9   beq   $0, $0, 0
#   143  pc = 15  pcaddr = 0000003c  instr = 1000ffff   v0 = 9   beq   $0, $0, 0
#   144  pc = 15  pcaddr = 0000003c  instr = 1000ffff   v0 = 9   beq   $0, $0, 0
#   145  pc = 15  pcaddr = 0000003c  instr = 1000ffff   v0 = 9   beq   $0, $0, 0
#   146  pc = 15  pcaddr = 0000003c  instr = 1000ffff   v0 = 9   beq   $0, $0, 0
#   147  pc = 15  pcaddr = 0000003c  instr = 1000ffff   v0 = 9   beq   $0, $0, 0
#   148  pc = 15  pcaddr = 0000003c  instr = 1000ffff   v0 = 9   beq   $0, $0, 0
#   149  pc = 15  pcaddr = 0000003c  instr = 1000ffff   v0 = 9   beq   $0, $0, 0
#   150  pc = 15  pcaddr = 0000003c  instr = 1000ffff   v0 = 9   beq   $0, $0, 0
#   151  pc = 15  pcaddr = 0000003c  instr = 1000ffff   v0 = 9   beq   $0, $0, 0
#   152  pc = 15  pcaddr = 0000003c  instr = 1000ffff   v0 = 9   beq   $0, $0, 0
#   153  pc = 15  pcaddr = 0000003c  instr = 1000ffff   v0 = 9   beq   $0, $0, 0
#   154  pc = 15  pcaddr = 0000003c  instr = 1000ffff   v0 = 9   beq   $0, $0, 0
#   155  pc = 15  pcaddr = 0000003c  instr = 1000ffff   v0 = 9   beq   $0, $0, 0
#   156  pc = 15  pcaddr = 0000003c  instr = 1000ffff   v0 = 9   beq   $0, $0, 0
#   157  pc = 15  pcaddr = 0000003c  instr = 1000ffff   v0 = 9   beq   $0, $0, 0
#   158  pc = 15  pcaddr = 0000003c  instr = 1000ffff   v0 = 9   beq   $0, $0, 0
#   159  pc = 15  pcaddr = 0000003c  instr = 1000ffff   v0 = 9   beq   $0, $0, 0
#   160  pc = 15  pcaddr = 0000003c  instr = 1000ffff   v0 = 9   beq   $0, $0, 0
#   161  pc = 15  pcaddr = 0000003c  instr = 1000ffff   v0 = 9   beq   $0, $0, 0
#   162  pc = 15  pcaddr = 0000003c  instr = 1000ffff   v0 = 9   beq   $0, $0, 0
#   163  pc = 15  pcaddr = 0000003c  instr = 1000ffff   v0 = 9   beq   $0, $0, 0
#   164  pc = 15  pcaddr = 0000003c  instr = 1000ffff   v0 = 9   beq   $0, $0, 0
#   165  pc = 15  pcaddr = 0000003c  instr = 1000ffff   v0 = 9   beq   $0, $0, 0
#   166  pc = 15  pcaddr = 0000003c  instr = 1000ffff   v0 = 9   beq   $0, $0, 0
#   167  pc = 15  pcaddr = 0000003c  instr = 1000ffff   v0 = 9   beq   $0, $0, 0
#   168  pc = 15  pcaddr = 0000003c  instr = 1000ffff   v0 = 9   beq   $0, $0, 0
#   169  pc = 15  pcaddr = 0000003c  instr = 1000ffff   v0 = 9   beq   $0, $0, 0
#   170  pc = 15  pcaddr = 0000003c  instr = 1000ffff   v0 = 9   beq   $0, $0, 0
#   171  pc = 15  pcaddr = 0000003c  instr = 1000ffff   v0 = 9   beq   $0, $0, 0
#   172  pc = 15  pcaddr = 0000003c  instr = 1000ffff   v0 = 9   beq   $0, $0, 0
#   173  pc = 15  pcaddr = 0000003c  instr = 1000ffff   v0 = 9   beq   $0, $0, 0
#   174  pc = 15  pcaddr = 0000003c  instr = 1000ffff   v0 = 9   beq   $0, $0, 0
#   175  pc = 15  pcaddr = 0000003c  instr = 1000ffff   v0 = 9   beq   $0, $0, 0
#   176  pc = 15  pcaddr = 0000003c  instr = 1000ffff   v0 = 9   beq   $0, $0, 0
#   177  pc = 15  pcaddr = 0000003c  instr = 1000ffff   v0 = 9   beq   $0, $0, 0
#   178  pc = 15  pcaddr = 0000003c  instr = 1000ffff   v0 = 9   beq   $0, $0, 0
#   179  pc = 15  pcaddr = 0000003c  instr = 1000ffff   v0 = 9   beq   $0, $0, 0
#   180  pc = 15  pcaddr = 0000003c  instr = 1000ffff   v0 = 9   beq   $0, $0, 0
#   181  pc = 15  pcaddr = 0000003c  instr = 1000ffff   v0 = 9   beq   $0, $0, 0
#   182  pc = 15  pcaddr = 0000003c  instr = 1000ffff   v0 = 9   beq   $0, $0, 0
#   183  pc = 15  pcaddr = 0000003c  instr = 1000ffff   v0 = 9   beq   $0, $0, 0
#   184  pc = 15  pcaddr = 0000003c  instr = 1000ffff   v0 = 9   beq   $0, $0, 0
#   185  pc = 15  pcaddr = 0000003c  instr = 1000ffff   v0 = 9   beq   $0, $0, 0
#   186  pc = 15  pcaddr = 0000003c  instr = 1000ffff   v0 = 9   beq   $0, $0, 0
#   187  pc = 15  pcaddr = 0000003c  instr = 1000ffff   v0 = 9   beq   $0, $0, 0
#   188  pc = 15  pcaddr = 0000003c  instr = 1000ffff   v0 = 9   beq   $0, $0, 0
#   189  pc = 15  pcaddr = 0000003c  instr = 1000ffff   v0 = 9   beq   $0, $0, 0
#   190  pc = 15  pcaddr = 0000003c  instr = 1000ffff   v0 = 9   beq   $0, $0, 0
#   191  pc = 15  pcaddr = 0000003c  instr = 1000ffff   v0 = 9   beq   $0, $0, 0
#   192  pc = 15  pcaddr = 0000003c  instr = 1000ffff   v0 = 9   beq   $0, $0, 0
#   193  pc = 15  pcaddr = 0000003c  instr = 1000ffff   v0 = 9   beq   $0, $0, 0
#   194  pc = 15  pcaddr = 0000003c  instr = 1000ffff   v0 = 9   beq   $0, $0, 0
#   195  pc = 15  pcaddr = 0000003c  instr = 1000ffff   v0 = 9   beq   $0, $0, 0
#   196  pc = 15  pcaddr = 0000003c  instr = 1000ffff   v0 = 9   beq   $0, $0, 0
#   197  pc = 15  pcaddr = 0000003c  instr = 1000ffff   v0 = 9   beq   $0, $0, 0
#   198  pc = 15  pcaddr = 0000003c  instr = 1000ffff   v0 = 9   beq   $0, $0, 0
#   199  pc = 15  pcaddr = 0000003c  instr = 1000ffff   v0 = 9   beq   $0, $0, 0
#   200  pc = 15  pcaddr = 0000003c  instr = 1000ffff   v0 = 9   beq   $0, $0, 0
# Timeout